[
{"city": ["<div class=\"center-city\">Alamosa</div>"], "code": null, "name": ["<div class=\"center-name\">Adams State University</div>"]},
{"city": ["<div class=\"center-city\">Arvada</div>"], "code": null, "name": ["<div class=\"center-name\">Arvada High School</div>"]},
{"city": ["<div class=\"center-city\">Arvada</div>"], "code": null, "name": ["<div class=\"center-name\">Arvada West High School</div>"]},
{"city": ["<div class=\"center-city\">Arvada</div>"], "code": null, "name": ["<div class=\"center-name\">Pomona High School</div>"]},
{"city": ["<div class=\"center-city\">Arvada</div>"], "code": null, "name": ["<div class=\"center-name\">Ralston Valley High School</div>"]},
{"city": ["<div class=\"center-city\">Aspen</div>"], "code": null, "name": ["<div class=\"center-name\">Aspen High School</div>"]},
{"city": ["<div class=\"center-city\">Aurora</div>"], "code": null, "name": ["<div class=\"center-name\">Aurora Central High School</div>"]},
{"city": ["<div class=\"center-city\">Aurora</div>"], "code": null, "name": ["<div class=\"center-name\">Overland High School</div>"]},
{"city": ["<div class=\"center-city\">Aurora</div>"], "code": null, "name": ["<div class=\"center-name\">Rangeview High School</div>"]},
{"city": ["<div class=\"center-city\">Aurora</div>"], "code": null, "name": ["<div class=\"center-name\">Smoky Hill High School</div>"]},
{"city": ["<div class=\"center-city\">Aurora</div>"], "code": null, "name": ["<div class=\"center-name\">William C Hinkley High School</div>"]},
{"city": ["<div class=\"center-city\">Bennett</div>"], "code": null, "name": ["<div class=\"center-name\">Bennett Senior High School</div>"]},
{"city": ["<div class=\"center-city\">Boulder</div>"], "code": null, "name": ["<div class=\"center-name\">Boulder High School</div>"]},
{"city": ["<div class=\"center-city\">Boulder</div>"], "code": null, "name": ["<div class=\"center-name\">Fairview High School</div>"]},
{"city": ["<div class=\"center-city\">Brush</div>"], "code": null, "name": ["<div class=\"center-name\">Brush High School</div>"]},
{"city": ["<div class=\"center-city\">Buena Vista</div>"], "code": null, "name": ["<div class=\"center-name\">Buena Vista High School</div>"]},
{"city": ["<div class=\"center-city\">Burlington</div>"], "code": null, "name": ["<div class=\"center-name\">Burlington High School</div>"]},
{"city": ["<div class=\"center-city\">Canon City</div>"], "code": null, "name": ["<div class=\"center-name\">Canon City Senior High School</div>"]},
{"city": ["<div class=\"center-city\">Carbondale</div>"], "code": null, "name": ["<div class=\"center-name\">Colorado Rocky Mountain School</div>"]},
{"city": ["<div class=\"center-city\">Castle Rock</div>"], "code": null, "name": ["<div class=\"center-name\">Castle View HIgh School</div>"]},
{"city": ["<div class=\"center-city\">Castle Rock</div>"], "code": null, "name": ["<div class=\"center-name\">Douglas County High School</div>"]},
{"city": ["<div class=\"center-city\">Cedaredge</div>"], "code": null, "name": ["<div class=\"center-name\">Cedaredge High School</div>"]},
{"city": ["<div class=\"center-city\">Centennial</div>"], "code": null, "name": ["<div class=\"center-name\">Eaglecrest High School</div>"]},
{"city": ["<div class=\"center-city\">Collbran</div>"], "code": null, "name": ["<div class=\"center-name\">Plateau Valley School</div>"]},
{"city": ["<div class=\"center-city\">Colorado Springs</div>"], "code": null, "name": ["<div class=\"center-name\">Cheyenne Mtn High School</div>"]},
{"city": ["<div class=\"center-city\">Colorado Springs</div>"], "code": null, "name": ["<div class=\"center-name\">Coronado High School</div>"]},
{"city": ["<div class=\"center-city\">Colorado Springs</div>"], "code": null, "name": ["<div class=\"center-name\">Discovery Canyon Campus School</div>"]},
{"city": ["<div class=\"center-city\">Colorado Springs</div>"], "code": null, "name": ["<div class=\"center-name\">Fountain Valley School</div>"]},
{"city": ["<div class=\"center-city\">Colorado Springs</div>"], "code": null, "name": ["<div class=\"center-name\">Rampart High School</div>"]},
{"city": ["<div class=\"center-city\">Colorado Springs</div>"], "code": null, "name": ["<div class=\"center-name\">Sand Creek High School</div>"]},
{"city": ["<div class=\"center-city\">Colorado Springs</div>"], "code": null, "name": ["<div class=\"center-name\">Thomas B Doherty High School</div>"]},
{"city": ["<div class=\"center-city\">Colorado Springs</div>"], "code": null, "name": ["<div class=\"center-name\">Widefield High School</div>"]},
{"city": ["<div class=\"center-city\">Colorado Springs</div>"], "code": null, "name": ["<div class=\"center-name\">William J Palmer High School</div>"]},
{"city": ["<div class=\"center-city\">Colorado Springs</div>"], "code": null, "name": ["<div class=\"center-name\">William Mitchell High School</div>"]},
{"city": ["<div class=\"center-city\">Conifer</div>"], "code": null, "name": ["<div class=\"center-name\">Conifer High School</div>"]},
{"city": ["<div class=\"center-city\">Cortez</div>"], "code": null, "name": ["<div class=\"center-name\">Montezuma - Cortez High School</div>"]},
{"city": ["<div class=\"center-city\">Craig</div>"], "code": null, "name": ["<div class=\"center-name\">Moffat County High School</div>"]},
{"city": ["<div class=\"center-city\">Creede</div>"], "code": null, "name": ["<div class=\"center-name\">Creede High School</div>"]},
{"city": ["<div class=\"center-city\">Delta</div>"], "code": null, "name": ["<div class=\"center-name\">Delta Senior High School</div>"]},
{"city": ["<div class=\"center-city\">Denver</div>"], "code": null, "name": ["<div class=\"center-name\">Abraham Lincoln High School</div>"]},
{"city": ["<div class=\"center-city\">Denver</div>"], "code": null, "name": ["<div class=\"center-name\">Arrupe Jesuit High School</div>"]},
{"city": ["<div class=\"center-city\">Denver</div>"], "code": null, "name": ["<div class=\"center-name\">Denver Academy</div>"]},
{"city": ["<div class=\"center-city\">Denver</div>"], "code": null, "name": ["<div class=\"center-name\">Denver Academy</div>"]},
{"city": ["<div class=\"center-city\">Denver</div>"], "code": null, "name": ["<div class=\"center-name\">East High School</div>"]},
{"city": ["<div class=\"center-city\">Denver</div>"], "code": null, "name": ["<div class=\"center-name\">George Washington High School</div>"]},
{"city": ["<div class=\"center-city\">Denver</div>"], "code": null, "name": ["<div class=\"center-name\">John F Kennedy High School</div>"]},
{"city": ["<div class=\"center-city\">Denver</div>"], "code": null, "name": ["<div class=\"center-name\">Metropolitan St College of Denver</div>"]},
{"city": ["<div class=\"center-city\">Denver</div>"], "code": null, "name": ["<div class=\"center-name\">Mile High Academy</div>"]},
{"city": ["<div class=\"center-city\">Denver</div>"], "code": null, "name": ["<div class=\"center-name\">Univ Of Colorado--Denver</div>"]},
{"city": ["<div class=\"center-city\">Durango</div>"], "code": null, "name": ["<div class=\"center-name\">Animas High School</div>"]}
][
